<?xml version="1.0" encoding="utf-8"?>
<!-- Generator: Adobe Illustrator 22.0.0, SVG Export Plug-In . SVG Version: 6.00 Build 0)  -->
<svg version="1.1" id="Calque_1" xmlns="http://www.w3.org/2000/svg" xmlns:xlink="http://www.w3.org/1999/xlink" x="0px" y="0px"
	 viewBox="0 0 20.7 20.7" style="enable-background:new 0 0 20.7 20.7;" xml:space="preserve">
<style type="text/css">
	.st0{fill:#0090d6;}
</style>
<title></title>
<g id="Layer_2">
	<g id="Layer_1-2">
		<path class="st0" d="M17,13.1c0.1-0.4,0.5-0.6,0.8-0.7c1-0.2,1.9-0.5,2.8-0.9V9.2l-2.8-0.8c-0.4-0.1-0.7-0.4-0.8-0.7l0,0
			c-0.1-0.4-0.1-0.8,0.1-1.1c0.5-0.9,1-1.8,1.4-2.7l-1.6-1.6c-0.9,0.4-1.8,0.9-2.6,1.4c-0.3,0.2-0.8,0.2-1.1,0.1l0,0
			c-0.3-0.1-0.6-0.4-0.7-0.8L11.4,0H9.2L8.3,2.8C8.2,3.2,8,3.5,7.6,3.7l0,0C7.2,3.8,6.8,3.8,6.5,3.6c-0.9-0.5-1.8-1-2.7-1.3L2.2,3.9
			C2.6,4.8,3,5.6,3.6,6.5c0.2,0.3,0.2,0.8,0.1,1.1l0,0C3.5,8,3.2,8.2,2.8,8.3C1.9,8.6,0.9,8.9,0,9.3v2.3c0.9,0.4,1.9,0.6,2.8,0.9
			c0.7,0.2,1.1,0.9,0.9,1.5c0,0.1-0.1,0.2-0.1,0.3c-0.5,0.8-1,1.7-1.4,2.6l1.6,1.6c0.9-0.4,1.8-0.9,2.6-1.4c0.3-0.2,0.7-0.2,1.1-0.1
			l0,0c0.4,0.1,0.6,0.5,0.7,0.8c0.2,1,0.5,1.9,0.9,2.8h2.3c0.4-0.9,0.6-1.9,0.9-2.8c0.1-0.4,0.4-0.7,0.8-0.9l0,0
			c0.4-0.1,0.8-0.1,1.1,0.1c0.8,0.5,1.7,1,2.7,1.4l1.6-1.6c-0.4-0.9-0.9-1.8-1.4-2.6C16.9,13.9,16.9,13.5,17,13.1L17,13.1z M10.3,16
			c-3.2,0-5.7-2.6-5.7-5.7s2.6-5.7,5.7-5.7s5.7,2.6,5.7,5.7C16.1,13.5,13.5,16,10.3,16L10.3,16z"/>
	</g>
</g>
<g transform="translate(0 -1028.4)">
	<path class="st0" d="M9,1039c-1.1,0.5-1.9,1.5-2,2.7c0,0.4,0.3,0.8,0.7,0.8H13c0.4,0,0.7-0.3,0.7-0.8c-0.1-1.2-0.9-2.3-2-2.7
		c-0.2,0.5-0.8,0.9-1.3,0.9S9.2,1039.5,9,1039z"/>
	<path class="st0" d="M12.2,1036.8c0,1-0.8,1.9-1.9,1.9s-1.9-0.8-1.9-1.9s0.8-1.9,1.9-1.9S12.2,1035.8,12.2,1036.8z"/>
	<path class="st0" d="M10.3,1038.3c-0.5,0-0.9,0.1-1.3,0.3c-1.1,0.5-1.9,1.5-2,2.7c0,0.4,0.3,0.8,0.7,0.8H13c0.4,0,0.7-0.3,0.7-0.8
		c-0.1-1.2-0.9-2.2-2-2.7C11.3,1038.5,10.8,1038.3,10.3,1038.3z"/>
</g>
</svg>
