<?xml version="1.0" encoding="utf-8"?>
<!-- Generator: Adobe Illustrator 22.0.0, SVG Export Plug-In . SVG Version: 6.00 Build 0)  -->
<svg version="1.1" xmlns="http://www.w3.org/2000/svg" xmlns:xlink="http://www.w3.org/1999/xlink" x="0px" y="0px"
	 viewBox="0 0 103.6 103.6" style="enable-background:new 0 0 103.6 103.6;" xml:space="preserve">
<style type="text/css">
	.st0{display:none;}
	.st1{display:inline;fill:#0BAFD6;}
	.st2{display:inline;fill:#371B10;}
	.st3{fill:#7B523C;}
	.st4{fill:#0BAFD6;}
	.st5{fill:#5B3C2E;}
	.st6{display:inline;}
	.st7{fill:#371B10;}
	.st8{display:inline;fill:#4553A4;}
	.st9{display:inline;fill:#FFFFFF;}
	.st10{display:inline;fill:#A2A1A1;}
</style>
<g id="Calque_1" class="st0">
	
		<image style="display:inline;overflow:visible;" width="192" height="192" xlink:href="icons/launcher-icon-4x.png"  transform="matrix(0.75 0 0 0.75 -21.7344 -21.9375)">
	</image>
</g>
<g id="Calque_2" class="st0">
	<polygon class="st1" points="25.8,77.6 19.6,83.5 51.8,103.6 	"/>
	<path class="st2" d="M26,25.8L-0.2,52c0,0,18.7,17.9,25.7,25.3s26.3,26.3,26.3,26.3s30.8-18.8,31.8-19.9S26,25.8,26,25.8z"/>
	<polygon class="st2" points="51.7,0 83.4,20.1 77.3,26 	"/>
	<path class="st1" d="M51.7,0L19.6,20.1c0,0,12.2,11.2,25.4,24.7s33,32.6,33,32.6l25.7-25.6L51.7,0z"/>
</g>
<g id="Calque_2_-_copie_2">
	<path class="st3" d="M32.5,7.7c-7.1-7.3-17.6-2-17.6-2C4.8,11.7,7.4,22.9,7.4,22.9c3.7,12.7,16.9,12.6,16.9,12.6l0-3.4
		c-7-0.2-9.7-3.5-9.7-3.5s-4.4-2-4.5-9.2s5.4-10.3,5.4-10.3S20.2,5.9,26,7.5c5.8,1.6,6.9,5.7,6.9,5.7s0.8,2,0.7,4.9
		c0,2.9-2.5,7.2-2.5,7.2S29.4,27,28.9,27s-0.8-0.2-0.8-0.2s-1.7-1.3-2-2.4c-0.3-1.1,0-1.8,0-1.8l2.8-8.6l0.1-0.5l-0.8-0.3l-2.8-1.1
		c0,0-3.9-2.1-8.2,2c-4.3,4-2.1,9-1.5,10.1c0.5,1.1,1.7,2,2.7,2.5c0.9,0.5,4.1,0.2,4.1,0.2l0.7-0.6h0.7l0.3,0.5c0,0,2,2.2,2.9,2.8
		c0.9,0.5,2.7,0,2.7,0s4.6-2,6.5-9.9C38,11.8,32.5,7.7,32.5,7.7z M23.1,23c0,0-1.6,2-3.2,1.4S17.8,21,17.8,21s-0.5-5.5,4.5-6.4
		c0,0,1.5-0.2,2.8,1C25.1,15.6,23.2,20.1,23.1,23z"/>
	<g>
		<polygon class="st4" points="30.3,73.2 25.2,78 51.8,94.6 		"/>
		<path class="st5" d="M30.5,30.3L8.8,52c0,0,15.5,14.8,21.3,20.9s21.7,21.7,21.7,21.7S77.2,79.1,78,78.2
			C78.9,77.2,30.5,30.3,30.5,30.3z"/>
		<polygon class="st5" points="51.7,8.9 77.9,25.5 72.9,30.4 		"/>
		<path class="st4" d="M51.7,8.9L25.2,25.6c0,0,10.1,9.3,21,20.4s27.3,27,27.3,27l21.2-21.1L51.7,8.9z"/>
	</g>
</g>
<g id="Calque_8" class="st0">
	
		<image style="overflow:visible;" width="40" height="40" xlink:href="609683AC.jpg"  transform="matrix(2.7281 0 0 2.7281 -2.7813 0)">
	</image>
	
		<image style="overflow:visible;" width="111" height="107" xlink:href="609683AD.jpg"  transform="matrix(0.9999 0 0 0.9999 -4.5826 -0.8944)">
	</image>
	<path class="st3" d="M84.6,16.1c-21.8-22.3-53.6-6-53.6-6C0.1,28.1,8.1,62.3,8.1,62.3c11.3,38.9,51.8,38.5,51.8,38.5L60,90.6
		c-21.4-0.6-29.6-10.6-29.6-10.6s-13.5-6.1-13.6-28.2s16.5-31.6,16.5-31.6s13.9-9.9,31.6-4.9c17.7,5,21,17.5,21,17.5s2.4,6.3,2.3,15
		s-7.8,22-7.8,22s-5.1,5-6.6,5.1s-2.5-0.5-2.5-0.5s-5.1-3.9-6-7.3s0-5.5,0-5.5l8.5-26.1l0.2-1.5l-2.3-0.8l-8.7-3.5c0,0-12-6.3-25,6
		c-13,12.3-6.3,27.3-4.7,30.8s5.3,6.2,8.2,7.7c2.8,1.5,12.5,0.5,12.5,0.5l2.2-1.8h2l0.8,1.5c0,0,6.2,6.8,9,8.5c2.8,1.7,8.2,0,8.2,0
		s14.2-6.2,19.8-30.3C101.6,28.5,84.6,16.1,84.6,16.1z M56,62.6c0,0-5,6.3-9.8,4.3s-6.5-10.3-6.5-10.3s-1.5-16.8,13.8-19.5
		c0,0,4.5-0.8,8.5,3C62,40.1,56.3,53.8,56,62.6z"/>
</g>
<g id="Calque_2_-_copie" class="st0">
	<g class="st6">
		<polygon class="st4" points="10.1,27 8.1,29 18.6,35.5 		"/>
		<path class="st7" d="M10.2,10.1l-8.6,8.5c0,0,6.1,5.9,8.4,8.3s8.6,8.6,8.6,8.6s10-6.1,10.4-6.5S10.2,10.1,10.2,10.1z"/>
		<polygon class="st7" points="18.5,1.7 28.9,8.2 26.9,10.2 		"/>
		<path class="st4" d="M18.5,1.7L8.1,8.3c0,0,4,3.7,8.3,8.1S27.2,27,27.2,27l8.4-8.3L18.5,1.7z"/>
	</g>
	<g id="Calque_4_-_copie" class="st6">
		<g id="Calque_5_-_copie">
			<path class="st3" d="M95.5,48.6l-4.8-0.1l-0.2-23c0,0-10-16.2-20.4-20.2c0,0-8.2-4.1-10.4-3.5L32.9,1.7l-0.2,5.6l27.2,0.2
				c0,0,15.3-1,24.9,17l2.5,3.7l0.2,28.2h-2.7l-0.4-10.4c0,0-15.1-9.4-21.9-20.2c0,0-33.3,20.2-49.3,23.1l-0.6,8.2l-3.7-1L6.1,52
				l-1.4,2.5v10.6c0,0,3.3,6.1,9.2,7.8c0,0,3.7,21.5,16.6,27.2c0,0,5.1,3.5,17.4,3.5s17.2-2,17.2-2s8.8-5.7,10-8.6l-20.9-0.4
				c0,0-0.8,3.3-4.9,3.3s-5.6-3.9-5.5-5.9c0.1-2.9,2.2-5.3,4.9-5.3c2.2,0,3.2,0.1,5.2,2.3l24.3,0.4c0,0,5.5-3.3,6.5-9.4
				c0,0,1-6.3,1-10l4.1-0.2v2.9h3.1c0,0-4.1,14.1-13.3,17.8v3.3l2,0.2c0,0,8.9-5.4,13.3-16l2.1-7.1l1.6-0.4v-2.7l2.7-0.4v-9.6V52
				L95.5,48.6z M31.8,64.5c-2.1,0-3.8-2.1-3.8-4.7c0-2.6,1.7-4.7,3.8-4.7c2.1,0,3.8,2.1,3.8,4.7C35.5,62.4,33.8,64.5,31.8,64.5z
				 M66,64.5c-2.1,0-3.8-2.1-3.8-4.7c0-2.6,1.7-4.7,3.8-4.7c2.1,0,3.8,2.1,3.8,4.7C69.8,62.4,68.1,64.5,66,64.5z"/>
		</g>
	</g>
</g>
<g id="Calque_3" class="st0">
	
		<image style="display:inline;overflow:visible;" width="57" height="52" xlink:href="609683AF.jpg"  transform="matrix(2.2384 0 0 2.2384 -12.0126 -6.4167)">
	</image>
</g>
<g id="Calque_12" class="st0">
	
		<image style="overflow:visible;" width="36" height="35" xlink:href="609683AB.jpg"  transform="matrix(2.8863 0 0 2.8863 -0.1719 2.49)">
	</image>
	<rect x="-0.2" y="-0.3" class="st8" width="103.9" height="103.9"/>
	<g>
		<rect x="-0.4" class="st9" width="45.2" height="46.5"/>
		<rect x="58.7" class="st9" width="45" height="46.5"/>
		<rect x="-0.4" y="57.4" class="st9" width="46.1" height="46.1"/>
		<rect x="58.7" y="57.4" class="st9" width="45" height="46.1"/>
	</g>
</g>
<g id="Calque_4" class="st0">
	<g id="Calque_5" class="st6">
		<path class="st3" d="M95.4,47.7l-4.9-0.1l-0.2-23.4c0,0-10.2-16.4-20.8-20.6c0,0-8.3-4.2-10.6-3.5L31.7,0l-0.2,5.7l27.6,0.2
			c0,0,15.6-1,25.4,17.2l2.5,3.7l0.2,28.7h-2.7L84.1,45c0,0-15.4-9.6-22.2-20.6c0,0-33.9,20.6-50.1,23.5l-0.6,8.3l-3.7-1l-2.9-3.9
			l-1.5,2.5v10.8c0,0,3.3,6.2,9.4,7.9c0,0,3.7,21.8,16.8,27.6c0,0,5.2,3.5,17.7,3.5s17.5-2.1,17.5-2.1s8.9-5.8,10.2-8.7l-21.2-0.4
			c0,0-0.8,3.3-5,3.3s-5.7-3.9-5.6-6c0.1-2.9,2.3-5.4,5-5.4c2.3,0,3.3,0.1,5.3,2.3l24.7,0.4c0,0,5.6-3.3,6.7-9.6c0,0,1-6.4,1-10.2
			l4.2-0.2v2.9h3.1c0,0-4.2,14.3-13.5,18.1v3.3l2.1,0.2c0,0,9.1-5.4,13.5-16.3l2.1-7.2l1.7-0.4v-2.7l2.7-0.4v-9.8v-3.5L95.4,47.7z
			 M30.6,63.9c-2.1,0-3.8-2.1-3.8-4.8c0-2.6,1.7-4.8,3.8-4.8c2.1,0,3.8,2.1,3.8,4.8C34.4,61.7,32.7,63.9,30.6,63.9z M65.4,63.9
			c-2.1,0-3.8-2.1-3.8-4.8c0-2.6,1.7-4.8,3.8-4.8c2.1,0,3.8,2.1,3.8,4.8C69.3,61.7,67.5,63.9,65.4,63.9z"/>
	</g>
</g>
<g id="Calque_6" class="st0">
	
		<image style="display:inline;overflow:visible;" width="41" height="38" xlink:href="609683A4.jpg"  transform="matrix(3.0392 0 0 3.0392 -8.3249 -3.9268)">
	</image>
</g>
<g id="Calque_7" class="st0">
	<path class="st10" d="M51.8,0C23.2,0,0,23.2,0,51.8s23.2,51.8,51.8,51.8c28.6,0,51.8-23.2,51.8-51.8S80.4,0,51.8,0z M47.2,20.5
		c1.3-1.3,2.9-2,4.8-2c1.8,0,3.4,0.6,4.7,1.9c1.3,1.3,2,2.9,2,4.8c0,1.9-0.7,3.5-2,4.8c-1.3,1.3-2.9,2-4.7,2c-1.9,0-3.5-0.7-4.8-2
		c-1.3-1.3-2-2.9-2-4.8C45.2,23.4,45.9,21.9,47.2,20.5z M64.1,83.2H39.6v-1.8c2.6-0.5,4.4-1.2,5.2-2.2c0.9-1,1.3-2.7,1.3-5.2V53.3
		c0-2.4-0.5-4.1-1.4-5c-0.9-0.9-2.8-1.7-5.6-2.2v-1.8l16.9-1.6h1.8v32.1c0,3.9,2.1,6.1,6.3,6.6V83.2z"/>
</g>
<g id="Calque_10" class="st0">
	
		<image style="overflow:visible;" width="302" height="288" xlink:href="609683A5.jpg"  transform="matrix(0.3315 0 0 0.3315 1.7187 4.8571)">
	</image>
	<g id="Calque_11">
		<path class="st9" d="M1.7,101.2h101.1v-4.8c0,0-1-11.6-39.1-22.9v-4.4v-3.6c0,0,10.3-8,12.6-17.5h2.7v-9.9h-2.5V18.7
			c0,0-1.1-9.7-14.5-13.9c0,0-3-1.1-7.8,2.7c0,0,1-2.7-3.5-4.4H39.9c0,0-10.1,4.4-12.6,14.3c0,0-1.1,6.3-1.1,8.8s0,5.9,0,5.9v6.1
			h-2.7v8l2.3,1.5c0,0,6.3,13.2,11.9,16.4v8.8c0,0-36.9,11.7-36.9,23.1v5.3H1.7z"/>
	</g>
</g>
<g id="Calque_13" class="st0">
	
		<image style="overflow:visible;" width="515" height="519" xlink:href="609683BA.jpg"  transform="matrix(0.2018 0 0 0.2018 -0.1719 -0.5754)">
	</image>
	<path class="st10" d="M73.7,6.8l-6.2,11.2L67,18c12.9,5.8,21.8,18.7,21.8,33.7c0,20.4-16.6,37-37,37c-20.4,0-37-16.6-37-37
		c0-15.2,9.2-28.2,22.3-33.9l0,0L31.2,6.2C13.9,14,1.8,31.5,1.8,51.8c0,27.6,22.4,50,50,50c27.6,0,50-22.4,50-50
		C101.8,32,90.3,14.9,73.7,6.8z"/>
	<rect x="45.3" y="1.1" class="st10" width="14.8" height="55.8"/>
</g>
</svg>
